ApplicationMgr    SUCCESS
====================================================================================================================================
====================================================================================================================================
ApplicationMgr       INFO Application Manager Configured successfully
EventLoopMgr      WARNING Unable to locate service "EventSelector"
EventLoopMgr      WARNING No events will be processed from external input.
ApplicationMgr       INFO Application Manager Initialized successfully
ApplicationMgr       INFO Application Manager Started successfully
DD4hep            WARNING ++ STD conditions NOT defined by client. NTP defaults taken.
DetectorDataSer...   INFO Overriding /world:TestConditionYML with { par1 : 1001.3, par2 : 1002.1, parv : [ 123 , 456 ] }
CondAlg1             INFO parameter value extracted: 1001.3 1002.1 123 456
CondAlg2             INFO parameter value extracted: 1001.3 1002.1 123 456
CondAlg3             INFO parameter value extracted: 1.3 2.1 4.5 5.6
CondAlg1             INFO parameter value extracted: 1001.3 1002.1 123 456
CondAlg2             INFO parameter value extracted: 1001.3 1002.1 123 456
CondAlg3             INFO parameter value extracted: 0.6 1.7 7.8 8.9
CondAlg1             INFO parameter value extracted: 1001.3 1002.1 123 456
CondAlg2             INFO parameter value extracted: 1001.3 1002.1 123 456
CondAlg3             INFO parameter value extracted: 1.3 2.1 4.5 5.6
ApplicationMgr       INFO Application Manager Stopped successfully
EventLoopMgr         INFO Histograms converted successfully according to request.
ApplicationMgr       INFO Application Manager Finalized successfully
ApplicationMgr       INFO Application Manager Terminated successfully
