ApplicationMgr    SUCCESS
====================================================================================================================================
====================================================================================================================================
ApplicationMgr       INFO Application Manager Configured successfully
ToolSvc.GitDDDB      INFO using checked out files in /.../Det/DetCond/test/TESTCOND
DetectorPersist...   INFO Added successfully Conversion service:XmlCnvSvc
DetectorDataSvc   SUCCESS Detector description database: git:/lhcb.xml
EventClockSvc.E...   INFO Event times generated from 1442403000000000000 with steps of 18399600000000000
EventLoopMgr      WARNING Unable to locate service "EventSelector"
EventLoopMgr      WARNING No events will be processed from external input.
ApplicationMgr       INFO Application Manager Initialized successfully
ApplicationMgr       INFO Application Manager Started successfully
CondAlg              INFO parameter value extracted: 1.3 2.1 4.5 5.6
CondAlg              INFO parameter value extracted: 0.6 1.7 7.8 8.9
CondAlg              INFO parameter value extracted: 1.3 2.1 4.5 5.6
ApplicationMgr       INFO Application Manager Stopped successfully
EventLoopMgr         INFO Histograms converted successfully according to request.
ToolSvc              INFO Removing all tools created by ToolSvc
ApplicationMgr       INFO Application Manager Finalized successfully
ApplicationMgr       INFO Application Manager Terminated successfully
