JobOptionsSvc        INFO Job options successfully file Aida2Root.opts
ApplicationMgr    SUCCESS
====================================================================================================================================
====================================================================================================================================
ApplicationMgr       INFO Application Manager Configured successfully
SimpleHistos        DEBUG Initialize base class GaudiCommon<Algorithm>
SimpleHistos        DEBUG could not locate CounterSummarySvc, no counter summary will be made
SimpleHistos        DEBUG Property ['Name': Value] =  'AuditExecute':False
SimpleHistos        DEBUG Property ['Name': Value] =  'AuditFinalize':False
SimpleHistos        DEBUG Property ['Name': Value] =  'AuditInitialize':False
SimpleHistos        DEBUG Property ['Name': Value] =  'AuditStart':False
SimpleHistos        DEBUG Property ['Name': Value] =  'AuditStop':False
SimpleHistos        DEBUG Property ['Name': Value] =  'AutoStringIDPurgeMap':{ '/' : '=SLASH=' }
SimpleHistos        DEBUG Property ['Name': Value] =  'Cardinality':1
SimpleHistos        DEBUG Property ['Name': Value] =  'CounterList':[ '.*' ]
SimpleHistos        DEBUG Property ['Name': Value] =  'Enable':True
SimpleHistos        DEBUG Property ['Name': Value] =  'ErrorMax':1
SimpleHistos        DEBUG Property ['Name': Value] =  'ErrorsPrint':True
SimpleHistos        DEBUG Property ['Name': Value] =  'FormatFor1DHistoTable':| %2$-45.45s | %3$=7d |%8$11.5g | %10$-11.5g|%12$11.5g |%14$11.5g |
SimpleHistos        DEBUG Property ['Name': Value] =  'FullDetail':False
SimpleHistos        DEBUG Property ['Name': Value] =  'HeaderFor1DHistoTable':|   Title                                       |    #    |     Mean   |    RMS     |  Skewness  |  Kurtosis  |
SimpleHistos        DEBUG Property ['Name': Value] =  'HistoCheckForNaN':True
SimpleHistos        DEBUG Property ['Name': Value] =  'HistoCountersPrint':True
SimpleHistos        DEBUG Property ['Name': Value] =  'HistoDir':SimpleHistos
SimpleHistos        DEBUG Property ['Name': Value] =  'HistoOffSet':0
SimpleHistos        DEBUG Property ['Name': Value] =  'HistoPrint':True
SimpleHistos        DEBUG Property ['Name': Value] =  'HistoProduce':True
SimpleHistos        DEBUG Property ['Name': Value] =  'HistoSplitDir':False
SimpleHistos        DEBUG Property ['Name': Value] =  'HistoTopDir':
SimpleHistos        DEBUG Property ['Name': Value] =  'MonitorHistograms':True
SimpleHistos        DEBUG Property ['Name': Value] =  'MonitorService':MonitorSvc
SimpleHistos        DEBUG Property ['Name': Value] =  'NeededResources':[  ]
SimpleHistos        DEBUG Property ['Name': Value] =  'OutputLevel':2
SimpleHistos        DEBUG Property ['Name': Value] =  'PropertiesPrint':False
SimpleHistos        DEBUG Property ['Name': Value] =  'RegisterForContextService':True
SimpleHistos        DEBUG Property ['Name': Value] =  'RequireObjects':[  ]
SimpleHistos        DEBUG Property ['Name': Value] =  'RootInTES':
SimpleHistos        DEBUG Property ['Name': Value] =  'ShortFormatFor1DHistoTable': | %1$-25.25s %2%
SimpleHistos        DEBUG Property ['Name': Value] =  'TypePrint':True
SimpleHistos        DEBUG Property ['Name': Value] =  'UseSequencialNumericAutoIDs':False
SimpleHistos        DEBUG Property ['Name': Value] =  'VetoObjects':[  ]
HistogramPersis...   INFO Added successfully Conversion service RootHistSvc
SimpleHistos        DEBUG The histogram path is set to be 'SimpleHistos'
SimpleHistos        DEBUG input handles: 0
SimpleHistos        DEBUG output handles: 0
EventLoopMgr      WARNING Unable to locate service "EventSelector"
EventLoopMgr      WARNING No events will be processed from external input.
ApplicationMgr       INFO Application Manager Initialized successfully
ApplicationMgr       INFO Application Manager Started successfully
RndmGenSvc.Engine    INFO Generator engine type:CLHEP::RanluxEngine
RndmGenSvc.Engine    INFO Current Seed:1234567 Luxury:3
RndmGenSvc           INFO Using Random engine:HepRndm::Engine<CLHEP::RanluxEngine>
SimpleHistos        DEBUG Monitoring histogram 'Gaussian mean=0, sigma=1' desc = 'Gaussian mean=0, sigma=1'
SimpleHistos        DEBUG Booked 1D Histogram : ID='Gaussian mean=0, sigma=1' Path=SimpleHistos Title='Gaussian mean=0, sigma=1'
SimpleHistos        DEBUG Monitoring histogram '101' desc = 'Exponential'
SimpleHistos        DEBUG Booked 1D Histogram : ID='101' Path=SimpleHistos Title='Exponential'
SimpleHistos        DEBUG Monitoring histogram '102' desc = 'Breit'
SimpleHistos        DEBUG Booked 1D Histogram : ID='102' Path=SimpleHistos Title='Breit'
SimpleHistos        DEBUG Monitoring histogram 'poisson' desc = 'Poisson'
SimpleHistos        DEBUG Booked 1D Histogram : ID='poisson' Path=SimpleHistos Title='Poisson'
SimpleHistos        DEBUG Monitoring histogram 'subdir1/bino' desc = 'Binominal'
SimpleHistos        DEBUG Booked 1D Histogram : ID='subdir1/bino' Path=SimpleHistos Title='Binominal'
SimpleHistos        DEBUG Monitoring histogram 'subdir2/bino' desc = 'Binominal'
SimpleHistos        DEBUG Booked 1D Histogram : ID='subdir2/bino' Path=SimpleHistos Title='Binominal'
SimpleHistos        DEBUG Monitoring histogram 'Gaussian V Flat' desc = 'Gaussian V Flat'
SimpleHistos        DEBUG Booked 2D Histogram : ID='Gaussian V Flat' Path=SimpleHistos Title='Gaussian V Flat'
SimpleHistos        DEBUG Monitoring histogram 'Exponential V Flat' desc = 'Exponential V Flat'
SimpleHistos        DEBUG Booked 2D Histogram : ID='Exponential V Flat' Path=SimpleHistos Title='Exponential V Flat'
SimpleHistos        DEBUG Monitoring histogram 'binVpois' desc = 'Binom V poisson'
SimpleHistos        DEBUG Booked 2D Histogram : ID='binVpois' Path=SimpleHistos Title='Binom V poisson'
SimpleHistos        DEBUG Monitoring histogram 'expoVpois' desc = 'Expo V poisson'
SimpleHistos        DEBUG Booked 2D Histogram : ID='expoVpois' Path=SimpleHistos Title='Expo V poisson'
SimpleHistos        DEBUG Monitoring histogram '3D plot AutoID' desc = '3D plot AutoID'
SimpleHistos        DEBUG Booked 3D Histogram : ID='3D plot AutoID' Path=SimpleHistos Title='3D plot AutoID'
SimpleHistos        DEBUG Monitoring histogram '3d' desc = '3D plot ForcedID'
SimpleHistos        DEBUG Booked 3D Histogram : ID='3d' Path=SimpleHistos Title='3D plot ForcedID'
SimpleHistos        DEBUG Monitoring histogram 'Expo V Gauss 1DProf' desc = 'Expo V Gauss 1DProf'
SimpleHistos        DEBUG Booked 1D Profile Histogram : ID='Expo V Gauss 1DProf' Path=SimpleHistos Title='Expo V Gauss 1DProf'
SimpleHistos        DEBUG Monitoring histogram 'Expo V Gauss 1DProf s' desc = 'Expo V Gauss 1DProf s'
SimpleHistos        DEBUG Booked 1D Profile Histogram : ID='Expo V Gauss 1DProf s' Path=SimpleHistos Title='Expo V Gauss 1DProf s'
SimpleHistos        DEBUG Monitoring histogram 'Gauss V Flat 1DProf' desc = 'Gauss V Flat 1DProf'
SimpleHistos        DEBUG Booked 1D Profile Histogram : ID='Gauss V Flat 1DProf' Path=SimpleHistos Title='Gauss V Flat 1DProf'
SimpleHistos        DEBUG Monitoring histogram 'Gauss V Flat 1DProf S' desc = 'Gauss V Flat 1DProf S'
SimpleHistos        DEBUG Booked 1D Profile Histogram : ID='Gauss V Flat 1DProf S' Path=SimpleHistos Title='Gauss V Flat 1DProf S'
SimpleHistos        DEBUG Monitoring histogram 'Gauss V Flat 1DProf, with limits-I' desc = 'Gauss V Flat 1DProf, with limits-I'
SimpleHistos        DEBUG Booked 1D Profile Histogram : ID='Gauss V Flat 1DProf, with limits-I' Path=SimpleHistos Title='Gauss V Flat 1DProf, with limits-I'
SimpleHistos        DEBUG Monitoring histogram 'Gauss V Flat 1DProf, with limits-I  s' desc = 'Gauss V Flat 1DProf, with limits-I  s'
SimpleHistos        DEBUG Booked 1D Profile Histogram : ID='Gauss V Flat 1DProf, with limits-I  s' Path=SimpleHistos Title='Gauss V Flat 1DProf, with limits-I  s'
SimpleHistos        DEBUG Monitoring histogram 'Gauss V Flat 1DProf, with limits-II' desc = 'Gauss V Flat 1DProf, with limits-II'
SimpleHistos        DEBUG Booked 1D Profile Histogram : ID='Gauss V Flat 1DProf, with limits-II' Path=SimpleHistos Title='Gauss V Flat 1DProf, with limits-II'
SimpleHistos        DEBUG Monitoring histogram 'Gauss V Flat 1DProf, with limits-II s' desc = 'Gauss V Flat 1DProf, with limits-II s'
SimpleHistos        DEBUG Booked 1D Profile Histogram : ID='Gauss V Flat 1DProf, with limits-II s' Path=SimpleHistos Title='Gauss V Flat 1DProf, with limits-II s'
SimpleHistos        DEBUG Monitoring histogram '2dprof' desc = '2D profile1'
SimpleHistos        DEBUG Booked 2D Profile Histogram : ID='2dprof' Path=SimpleHistos Title='2D profile1'
SimpleHistos        DEBUG Monitoring histogram '321' desc = '2D profile2'
SimpleHistos        DEBUG Booked 2D Profile Histogram : ID='321' Path=SimpleHistos Title='2D profile2'
SimpleHistos        DEBUG Monitoring histogram 'varBinning/x' desc = '1D Variable Binning'
SimpleHistos        DEBUG Booked 1D Histogram : ID='varBinning/x' Path=SimpleHistos Title='1D Variable Binning'
SimpleHistos        DEBUG Monitoring histogram 'varBinning/y' desc = '2D Variable Binning'
SimpleHistos        DEBUG Booked 2D Histogram : ID='varBinning/y' Path=SimpleHistos Title='2D Variable Binning'
SimpleHistos        DEBUG Monitoring histogram 'varBinning/z' desc = '3D Variable Binning'
SimpleHistos        DEBUG Booked 3D Histogram : ID='varBinning/z' Path=SimpleHistos Title='3D Variable Binning'
SimpleHistos        DEBUG Monitoring histogram 'varBinning/a' desc = '1D Profile Variable Binning'
SimpleHistos        DEBUG Booked 1D Profile Histogram : ID='varBinning/a' Path=SimpleHistos Title='1D Profile Variable Binning'
SimpleHistos        DEBUG Monitoring histogram 'varBinning/b' desc = '2D Profile Variable Binning'
SimpleHistos        DEBUG Booked 2D Profile Histogram : ID='varBinning/b' Path=SimpleHistos Title='2D Profile Variable Binning'
SimpleHistos        DEBUG Monitoring histogram 'AutoID time test' desc = 'AutoID time test'
SimpleHistos        DEBUG Booked 1D Histogram : ID='AutoID time test' Path=SimpleHistos Title='AutoID time test'
SimpleHistos        DEBUG Monitoring histogram '1111' desc = 'Forced Numeric ID time test'
SimpleHistos        DEBUG Booked 1D Histogram : ID='1111' Path=SimpleHistos Title='Forced Numeric ID time test'
SimpleHistos        DEBUG Monitoring histogram 'test1' desc = 'Forced Alpha ID time test'
SimpleHistos        DEBUG Booked 1D Histogram : ID='test1' Path=SimpleHistos Title='Forced Alpha ID time test'
SimpleHistos         INFO GaudiHistoAlgorithm:: Filling Histograms...... Please be patient !
ApplicationMgr       INFO Application Manager Stopped successfully
SimpleHistos        DEBUG Finalize base class GaudiAlgorithm
SimpleHistos        DEBUG Tools to release :
SimpleHistos        DEBUG Services to release :
Aida2Root         SUCCESS Get the native ROOT representation of histograms!
Aida2Root            INFO The native ROOT printout for 1D-histogram 'SimpleHistos/Gaussian mean=0, sigma=1':
TH1.Print Name  = Gaussian mean=0, sigma=1, Entries= 50000, Total sum= 50000
Aida2Root            INFO  |  Compare       | AIDA/HistoStats |     ROOT/TH1    |      Delta      |
Aida2Root            INFO  | 'mean'         |    -0.010745789 | -0.010745789    |        0        |
Aida2Root            INFO  | 'meanErr'      |      0.00446417 |  0.00446417     |        0        |
Aida2Root            INFO  | 'rms'          |      0.99821875 |  0.99821875     |        0        |
Aida2Root            INFO  | 'rmsErr'       |    0.0031863902 |  0.0031566448   |  2.9745376e-05  |
Aida2Root            INFO  | 'skewness'     |   -0.0062504859 | ### | ### |
Aida2Root            INFO  | 'skewnessErr'  |     0.010953794 | ### | ### |
Aida2Root            INFO  | 'kurtosis'     |     0.037829984 | ### | ### |
Aida2Root            INFO  | 'kurtosisErr'  |     0.021905616 | ### | ### |
Aida2Root            INFO The native ROOT printout for 1D-histogram 'SimpleHistos/101':
TH1.Print Name  = Exponential, Entries= 50000, Total sum= 49643
Aida2Root            INFO  |  Compare       | AIDA/HistoStats |     ROOT/TH1    |      Delta      |
Aida2Root            INFO  | 'mean'         |      0.97243786 |  0.97243786     |        0        |
Aida2Root            INFO  | 'meanErr'      |    0.0041006464 |  0.0041006464   |        0        |
Aida2Root            INFO  | 'rms'          |       0.9136531 |  0.9136531      |        0        |
Aida2Root            INFO  | 'rmsErr'       |    0.0041754089 |  0.0028995949   |   0.001275814   |
Aida2Root            INFO  | 'skewness'     |       1.4781317 | ### | ### |
Aida2Root            INFO  | 'skewnessErr'  |     0.010993105 | ### | ### |
Aida2Root            INFO  | 'kurtosis'     |       2.1471444 | ### | ### |
Aida2Root            INFO  | 'kurtosisErr'  |     0.021984217 | ### | ### |
Aida2Root            INFO The native ROOT printout for 1D-histogram 'SimpleHistos/102':
TH1.Print Name  = Breit, Entries= 50000, Total sum= 46916
Aida2Root            INFO  |  Compare       | AIDA/HistoStats |     ROOT/TH1    |      Delta      |
Aida2Root            INFO  | 'mean'         |   -0.0047661262 | -0.0047661262   |        0        |
Aida2Root            INFO  | 'meanErr'      |    0.0055320286 |  0.0055320286   |        0        |
Aida2Root            INFO  | 'rms'          |        1.198243 |  1.198243       |        0        |
Aida2Root            INFO  | 'rmsErr'       |    0.0065184224 |  0.003911735    |   0.0026066875  |
Aida2Root            INFO  | 'skewness'     |   -0.0023700175 | ### | ### |
Aida2Root            INFO  | 'skewnessErr'  |     0.011308041 | ### | ### |
Aida2Root            INFO  | 'kurtosis'     |       3.5535773 | ### | ### |
Aida2Root            INFO  | 'kurtosisErr'  |     0.022613912 | ### | ### |
Aida2Root            INFO The native ROOT printout for 1D-histogram 'SimpleHistos/1111':
TH1.Print Name  = Forced Numeric ID time test, Entries= 50000, Total sum= 50000
Aida2Root            INFO  |  Compare       | AIDA/HistoStats |     ROOT/TH1    |      Delta      |
Aida2Root            INFO  | 'mean'         |    -0.010745789 | -0.010745789    |        0        |
Aida2Root            INFO  | 'meanErr'      |      0.00446417 |  0.00446417     |        0        |
Aida2Root            INFO  | 'rms'          |      0.99821875 |  0.99821875     |        0        |
Aida2Root            INFO  | 'rmsErr'       |    0.0031863902 |  0.0031566448   |  2.9745376e-05  |
Aida2Root            INFO  | 'skewness'     |   -0.0062504859 | ### | ### |
Aida2Root            INFO  | 'skewnessErr'  |     0.010953794 | ### | ### |
Aida2Root            INFO  | 'kurtosis'     |     0.037829984 | ### | ### |
Aida2Root            INFO  | 'kurtosisErr'  |     0.021905616 | ### | ### |
Aida2Root            INFO The native ROOT printout for 1D-histogram 'SimpleHistos/test1':
TH1.Print Name  = Forced Alpha ID time test, Entries= 50000, Total sum= 50000
Aida2Root            INFO  |  Compare       | AIDA/HistoStats |     ROOT/TH1    |      Delta      |
Aida2Root            INFO  | 'mean'         |    -0.010745789 | -0.010745789    |        0        |
Aida2Root            INFO  | 'meanErr'      |      0.00446417 |  0.00446417     |        0        |
Aida2Root            INFO  | 'rms'          |      0.99821875 |  0.99821875     |        0        |
Aida2Root            INFO  | 'rmsErr'       |    0.0031863902 |  0.0031566448   |  2.9745376e-05  |
Aida2Root            INFO  | 'skewness'     |   -0.0062504859 | ### | ### |
Aida2Root            INFO  | 'skewnessErr'  |     0.010953794 | ### | ### |
Aida2Root            INFO  | 'kurtosis'     |     0.037829984 | ### | ### |
Aida2Root            INFO  | 'kurtosisErr'  |     0.021905616 | ### | ### |
Aida2Root            INFO The native ROOT printout for 1D-histogram 'SimpleHistos/subdir2/bino':
TH1.Print Name  = Binominal, Entries= 50000, Total sum= 48626
Aida2Root            INFO  |  Compare       | AIDA/HistoStats |     ROOT/TH1    |      Delta      |
Aida2Root            INFO  | 'mean'         |       1.9077243 |  1.9077243      |        0        |
Aida2Root            INFO  | 'meanErr'      |    0.0050640754 |  0.0050640754   |        0        |
Aida2Root            INFO  | 'rms'          |       1.1166946 |  1.1166946      |        0        |
Aida2Root            INFO  | 'rmsErr'       |    0.0029186938 |  0.003580842    | -0.00066214827  |
Aida2Root            INFO  | 'skewness'     |      0.25325708 | ### | ### |
Aida2Root            INFO  | 'skewnessErr'  |     0.011107455 | ### | ### |
Aida2Root            INFO  | 'kurtosis'     |     -0.67131117 | ### | ### |
Aida2Root            INFO  | 'kurtosisErr'  |     0.022212854 | ### | ### |
Aida2Root            INFO The native ROOT printout for 1D-histogram 'SimpleHistos/subdir1/bino':
TH1.Print Name  = Binominal, Entries= 50000, Total sum= 48626
Aida2Root            INFO  |  Compare       | AIDA/HistoStats |     ROOT/TH1    |      Delta      |
Aida2Root            INFO  | 'mean'         |       1.9077243 |  1.9077243      |        0        |
Aida2Root            INFO  | 'meanErr'      |    0.0050640754 |  0.0050640754   |        0        |
Aida2Root            INFO  | 'rms'          |       1.1166946 |  1.1166946      |        0        |
Aida2Root            INFO  | 'rmsErr'       |    0.0029186938 |  0.003580842    | -0.00066214827  |
Aida2Root            INFO  | 'skewness'     |      0.25325708 | ### | ### |
Aida2Root            INFO  | 'skewnessErr'  |     0.011107455 | ### | ### |
Aida2Root            INFO  | 'kurtosis'     |     -0.67131117 | ### | ### |
Aida2Root            INFO  | 'kurtosisErr'  |     0.022212854 | ### | ### |
Aida2Root            INFO The native ROOT printout for 1D-histogram 'SimpleHistos/poisson':
TH1.Print Name  = Poisson, Entries= 50000, Total sum= 47490
Aida2Root            INFO  |  Compare       | AIDA/HistoStats |     ROOT/TH1    |      Delta      |
Aida2Root            INFO  | 'mean'         |       1.8071594 |  1.8071594      |        0        |
Aida2Root            INFO  | 'meanErr'      |    0.0054121148 |  0.0054121148   |        0        |
Aida2Root            INFO  | 'rms'          |       1.1794189 |  1.1794189      |        0        |
Aida2Root            INFO  | 'rmsErr'       |    0.0030023803 |  0.0038269431   | -0.00082456277  |
Aida2Root            INFO  | 'skewness'     |       0.3325611 | ### | ### |
Aida2Root            INFO  | 'skewnessErr'  |     0.011239503 | ### | ### |
Aida2Root            INFO  | 'kurtosis'     |     -0.76904397 | ### | ### |
Aida2Root            INFO  | 'kurtosisErr'  |     0.022476876 | ### | ### |
Aida2Root            INFO The native ROOT printout for 2D-histogram 'SimpleHistos/Gaussian V Flat':
TH1.Print Name  = Gaussian V Flat, Entries= 50000, Total sum= 25010
Aida2Root            INFO The native ROOT printout for 2D-histogram 'SimpleHistos/Exponential V Flat':
TH1.Print Name  = Exponential V Flat, Entries= 50000, Total sum= 24826
Aida2Root            INFO The native ROOT printout for 2D-histogram 'SimpleHistos/binVpois':
TH1.Print Name  = Binom V poisson, Entries= 50000, Total sum= 46180
Aida2Root            INFO The native ROOT printout for 2D-histogram 'SimpleHistos/expoVpois':
TH1.Print Name  = Expo V poisson, Entries= 50000, Total sum= 47146
Aida2Root            INFO The native ROOT printout for 3D-histogram 'SimpleHistos/3D plot AutoID':
TH1.Print Name  = 3D plot AutoID, Entries= 50000, Total sum= 46583
Aida2Root            INFO The native ROOT printout for 3D-histogram 'SimpleHistos/3d':
TH1.Print Name  = 3D plot ForcedID, Entries= 50000, Total sum= 46583
Aida2Root            INFO The native ROOT printout for 1D-profile 'SimpleHistos/Expo V Gauss 1DProf':
TH1.Print Name  = Expo V Gauss 1DProf, Entries= 50000, Total sum= 45.5783
Aida2Root            INFO The native ROOT printout for 2D-profile 'SimpleHistos/321':
TH1.Print Name  = 2D profile2, Entries= 50000, Total sum= 2739.26
Aida2Root            INFO The native ROOT printout for 2D-profile 'SimpleHistos/2dprof':
TH1.Print Name  = 2D profile1, Entries= 50000, Total sum= 2739.26
EventLoopMgr         INFO Histograms converted successfully according to request.
*****Chrono*****     INFO  The Final CPU consumption ( Chrono ) Table (ordered)
ChronoStatSvc.f...   INFO  Service finalized successfully
ApplicationMgr       INFO Application Manager Finalized successfully
ApplicationMgr       INFO Application Manager Terminated successfully
SimpleHistos      SUCCESS 1D histograms in directory "SimpleHistos" : 10
 | ID                        |   Title                                       |    #    |     Mean   |    RMS     |  Skewness  |  Kurtosis  |
 | 101                       | "Exponential"                                 |  50000  |    0.97244 | 0.91365    |     1.4781 |     2.1471 |
 | 102                       | "Breit"                                       |  50000  | -0.0047661 | 1.1982     |   -0.00237 |     3.5536 |
 | 1111                      | "Forced Numeric ID time test"                 |  50000  |  -0.010746 | 0.99822    | -0.0062505 |    0.03783 |
 | AutoID time test          | "AutoID time test"                            |  50000  |  -0.010746 | 0.99822    | -0.0062505 |    0.03783 |
 | Gaussian mean=0, sigma=1  | "Gaussian mean=0, sigma=1"                    |  50000  |  -0.010746 | 0.99822    | -0.0062505 |    0.03783 |
 | poisson                   | "Poisson"                                     |  50000  |     1.8072 | 1.1794     |    0.33256 |   -0.76904 |
 | subdir1/bino              | "Binominal"                                   |  50000  |     1.9077 | 1.1167     |    0.25326 |   -0.67131 |
 | subdir2/bino              | "Binominal"                                   |  50000  |     1.9077 | 1.1167     |    0.25326 |   -0.67131 |
 | test1                     | "Forced Alpha ID time test"                   |  50000  |  -0.010746 | 0.99822    | -0.0062505 |    0.03783 |
 | varBinning/x              | "1D Variable Binning"                         |  50000  | -0.0016591 | 2.8821     |   0.010336 |    -1.3177 |
SimpleHistos      SUCCESS 1D profile histograms in directory "SimpleHistos" : 9
 | ID                        |   Title                                       |    #    |     Mean   |    RMS     |  Skewness  |  Kurtosis  |
 | Expo V Gauss 1DProf       | "Expo V Gauss 1DProf"                         |  50000  |  -0.010746 | 0.99822    |     2.2178 |     83.641 |
 | Expo V Gauss 1DProf s     | "Expo V Gauss 1DProf s"                       |  50000  |  -0.010746 | 0.99822    |     2.2178 |     83.641 |
 | Gauss V Flat 1DProf       | "Gauss V Flat 1DProf"                         |  50000  | -0.0066482 | 5.7661     |          0 |         -3 |
 | Gauss V Flat 1DProf S     | "Gauss V Flat 1DProf S"                       |  50000  | -0.0066482 | 5.7661     |          0 |         -3 |
 | Gauss V Flat 1DProf, with | "Gauss V Flat 1DProf, with limits-I"          |  24761  |   0.017698 | 5.7622     |   0.010483 |    -1.2479 |
 | Gauss V Flat 1DProf, with | "Gauss V Flat 1DProf, with limits-I  s"       |  24761  |   0.017698 | 5.7622     |   0.010483 |    -1.2479 |
 | Gauss V Flat 1DProf, with | "Gauss V Flat 1DProf, with limits-II"         |  25239  |  -0.030533 | 5.7699     |          0 |         -3 |
 | Gauss V Flat 1DProf, with | "Gauss V Flat 1DProf, with limits-II s"       |  25239  |  -0.030533 | 5.7699     |          0 |         -3 |
 | varBinning/a              | "1D Profile Variable Binning"                 |  50000  | -0.0016591 | 2.8821     |          0 |         -3 |
