ApplicationMgr    SUCCESS
====================================================================================================================================
====================================================================================================================================
ApplicationMgr       INFO Application Manager Configured successfully
TESFingerPrint    VERBOSE ServiceLocatorHelper::service: found service EventDataSvc
TESFingerPrint    VERBOSE ServiceLocatorHelper::service: found service TimelineSvc
TESFingerPrint      DEBUG input handles: 0
TESFingerPrint      DEBUG output handles: 0
TESFingerPrint      DEBUG Adding public ToolHandle tool ToolSvc.DataSvcFileEntriesTool (DataSvcFileEntriesTool)
EventPersistenc...   INFO Added successfully Conversion service:RootCnvSvc
InputCopyStream      INFO Data source: EventDataSvc output: DATAFILE='PFN:ROOT.digi' SVC='RootCnvSvc' OPT='REC'
FileRecordPersi...   INFO Added successfully Conversion service:FileRecordCnvSvc
FSRInputCopyStream   INFO Data source: FileRecordDataSvc output: DATAFILE='PFN:ROOT.digi' SVC='FileRecordCnvSvc' OPT='REC'
ApplicationMgr       INFO Application Manager Initialized successfully
ApplicationMgr       INFO Application Manager Started successfully
EventSelector     SUCCESS Reading Event record 1. Record number within stream 1: 1
StoreExplorerAlg     INFO ========= /Event[0x########@EventDataSvc]:
StoreExplorerAlg     INFO +--> /Event [Address: CLID=0x1 Type=0x2]  DataObject
StoreExplorerAlg     INFO | +--> /Gen [Address: CLID=0x1 Type=0x2]  DataObject
StoreExplorerAlg     INFO | | +--> /Header [Address: CLID=0x66 Type=0x2]  LHCb::GenHeader
StoreExplorerAlg     INFO | | +--> /HepMCEvents [Address: CLID=0x######## Type=0x2]  KeyedContainer<LHCb::HepMCEvent, [0x2]
StoreExplorerAlg     INFO | | +--> /Collisions [Address: CLID=0x######## Type=0x2]  KeyedContainer<LHCb::GenCollisio [0x2]
StoreExplorerAlg     INFO | +--> /MC [Address: CLID=0x1 Type=0x2]  DataObject
StoreExplorerAlg     INFO | | +--> /Header [Address: CLID=0x68 Type=0x2]  LHCb::MCHeader
StoreExplorerAlg     INFO | | +--> /Muon [Address: CLID=0x1 Type=0x2]  DataObject
StoreExplorerAlg     INFO | | | +--> /DigitsInfo [Address: CLID=0x1f4 Type=0x2]  LHCb::IntLink
StoreExplorerAlg     INFO | | +--> /Rich [Address: CLID=0x1 Type=0x2]  DataObject
StoreExplorerAlg     INFO | | | +--> /DigitSummaries [Address: CLID=0x######## Type=0x2]  ObjectVector<LHCb::MCRichDigitSu [0x8a0]
StoreExplorerAlg     INFO | | +--> /DigiHeader [Address: CLID=0x67 Type=0x2]  LHCb::ProcessHeader
StoreExplorerAlg     INFO | | +--> /TrackInfo [Address: CLID=0x12c Type=0x2]  LHCb::MCProperty
StoreExplorerAlg     INFO | +--> /Link [Address: CLID=0x1 Type=0x2]  DataObject
StoreExplorerAlg     INFO | | +--> /Raw [Address: CLID=0x1 Type=0x2]  DataObject
StoreExplorerAlg     INFO | | | +--> /Velo [Address: CLID=0x1 Type=0x2]  DataObject
StoreExplorerAlg     INFO | | | | +--> /Clusters2MCHits [Address: CLID=0x190 Type=0x2]  LHCb::LinksByKey
StoreExplorerAlg     INFO | | | | +--> /Clusters [Address: CLID=0x190 Type=0x2]  LHCb::LinksByKey
StoreExplorerAlg     INFO | | | +--> /TT [Address: CLID=0x1 Type=0x2]  DataObject
StoreExplorerAlg     INFO | | | | +--> /Clusters2MCHits [Address: CLID=0x190 Type=0x2]  LHCb::LinksByKey
StoreExplorerAlg     INFO | | | | +--> /Clusters [Address: CLID=0x190 Type=0x2]  LHCb::LinksByKey
StoreExplorerAlg     INFO | | | +--> /IT [Address: CLID=0x1 Type=0x2]  DataObject
StoreExplorerAlg     INFO | | | | +--> /Clusters2MCHits [Address: CLID=0x190 Type=0x2]  LHCb::LinksByKey
StoreExplorerAlg     INFO | | | | +--> /Clusters [Address: CLID=0x190 Type=0x2]  LHCb::LinksByKey
StoreExplorerAlg     INFO | | | +--> /OT [Address: CLID=0x1 Type=0x2]  DataObject
StoreExplorerAlg     INFO | | | | +--> /Times2MCHits [Address: CLID=0x190 Type=0x2]  LHCb::LinksByKey
StoreExplorerAlg     INFO | | | | +--> /Times [Address: CLID=0x190 Type=0x2]  LHCb::LinksByKey
StoreExplorerAlg     INFO | | | +--> /Ecal [Address: CLID=0x1 Type=0x2]  DataObject
StoreExplorerAlg     INFO | | | | +--> /Digits [Address: CLID=0x190 Type=0x2]  LHCb::LinksByKey
StoreExplorerAlg     INFO | | | +--> /Hcal [Address: CLID=0x1 Type=0x2]  DataObject
StoreExplorerAlg     INFO | | | | +--> /Digits [Address: CLID=0x190 Type=0x2]  LHCb::LinksByKey
StoreExplorerAlg     INFO | | | +--> /Muon [Address: CLID=0x1 Type=0x2]  DataObject
StoreExplorerAlg     INFO | | |   +--> /Digits [Address: CLID=0x190 Type=0x2]  LHCb::LinksByKey
StoreExplorerAlg     INFO | | +--> /Trig [Address: CLID=0x1 Type=0x2]  DataObject
StoreExplorerAlg     INFO | |   +--> /L0 [Address: CLID=0x1 Type=0x2]  DataObject
StoreExplorerAlg     INFO | |   | +--> /Calo [Address: CLID=0x190 Type=0x2]  LHCb::LinksByKey
StoreExplorerAlg     INFO | |     +--> /FullCalo [Address: CLID=0x190 Type=0x2]  LHCb::LinksByKey
StoreExplorerAlg     INFO | +--> /pSim [Address: CLID=0x1 Type=0x2]  DataObject
StoreExplorerAlg     INFO | | +--> /MCParticles [Address: CLID=0x5e6 Type=0x2]  LHCb::PackedMCParticles
StoreExplorerAlg     INFO | | +--> /MCVertices [Address: CLID=0x5e7 Type=0x2]  LHCb::PackedMCVertices
StoreExplorerAlg     INFO   +--> /DAQ [Address: CLID=0x1 Type=0x2]  DataObject
StoreExplorerAlg     INFO     +--> /RawEvent [Address: CLID=0x3ea Type=0x2]  LHCb::RawEvent
DumpMCEventAlg       INFO ++++++++++++++++++++++++++++++++++++++++++++++++++++
{ applicationName :	Gauss
applicationVersion :	v36r3
runNumber :	1082
condDBTags :	[(DDDB, head-20090330), (SIMCOND, sim-20090402-vc-mu100)]
platformInfo :DUMMY_INSTRUCTION_SET
 }{ evtNumber :	72
evtTime :	212000
 }
DumpMCEventAlg       INFO MCVertex/MCParticle tree structure is OK
DumpMCEventAlg       INFO There are 2 Primary Vertices:
DumpMCEventAlg       INFO There are 1208 Vertices:
DumpMCEventAlg       INFO There are 1195 Particles:
EventSelector     SUCCESS Reading Event record 2. Record number within stream 1: 2
StoreExplorerAlg     INFO ========= /Event[0x########@EventDataSvc]:
StoreExplorerAlg     INFO +--> /Event [Address: CLID=0x1 Type=0x2]  DataObject
StoreExplorerAlg     INFO | +--> /Gen [Address: CLID=0x1 Type=0x2]  DataObject
StoreExplorerAlg     INFO | | +--> /Header [Address: CLID=0x66 Type=0x2]  LHCb::GenHeader
StoreExplorerAlg     INFO | | +--> /HepMCEvents [Address: CLID=0x######## Type=0x2]  KeyedContainer<LHCb::HepMCEvent, [0x2]
StoreExplorerAlg     INFO | | +--> /Collisions [Address: CLID=0x######## Type=0x2]  KeyedContainer<LHCb::GenCollisio [0x2]
StoreExplorerAlg     INFO | +--> /MC [Address: CLID=0x1 Type=0x2]  DataObject
StoreExplorerAlg     INFO | | +--> /Header [Address: CLID=0x68 Type=0x2]  LHCb::MCHeader
StoreExplorerAlg     INFO | | +--> /Muon [Address: CLID=0x1 Type=0x2]  DataObject
StoreExplorerAlg     INFO | | | +--> /DigitsInfo [Address: CLID=0x1f4 Type=0x2]  LHCb::IntLink
StoreExplorerAlg     INFO | | +--> /Rich [Address: CLID=0x1 Type=0x2]  DataObject
StoreExplorerAlg     INFO | | | +--> /DigitSummaries [Address: CLID=0x######## Type=0x2]  ObjectVector<LHCb::MCRichDigitSu [0xe77]
StoreExplorerAlg     INFO | | +--> /DigiHeader [Address: CLID=0x67 Type=0x2]  LHCb::ProcessHeader
StoreExplorerAlg     INFO | | +--> /TrackInfo [Address: CLID=0x12c Type=0x2]  LHCb::MCProperty
StoreExplorerAlg     INFO | +--> /Link [Address: CLID=0x1 Type=0x2]  DataObject
StoreExplorerAlg     INFO | | +--> /Raw [Address: CLID=0x1 Type=0x2]  DataObject
StoreExplorerAlg     INFO | | | +--> /Velo [Address: CLID=0x1 Type=0x2]  DataObject
StoreExplorerAlg     INFO | | | | +--> /Clusters2MCHits [Address: CLID=0x190 Type=0x2]  LHCb::LinksByKey
StoreExplorerAlg     INFO | | | | +--> /Clusters [Address: CLID=0x190 Type=0x2]  LHCb::LinksByKey
StoreExplorerAlg     INFO | | | +--> /TT [Address: CLID=0x1 Type=0x2]  DataObject
StoreExplorerAlg     INFO | | | | +--> /Clusters2MCHits [Address: CLID=0x190 Type=0x2]  LHCb::LinksByKey
StoreExplorerAlg     INFO | | | | +--> /Clusters [Address: CLID=0x190 Type=0x2]  LHCb::LinksByKey
StoreExplorerAlg     INFO | | | +--> /IT [Address: CLID=0x1 Type=0x2]  DataObject
StoreExplorerAlg     INFO | | | | +--> /Clusters2MCHits [Address: CLID=0x190 Type=0x2]  LHCb::LinksByKey
StoreExplorerAlg     INFO | | | | +--> /Clusters [Address: CLID=0x190 Type=0x2]  LHCb::LinksByKey
StoreExplorerAlg     INFO | | | +--> /OT [Address: CLID=0x1 Type=0x2]  DataObject
StoreExplorerAlg     INFO | | | | +--> /Times2MCHits [Address: CLID=0x190 Type=0x2]  LHCb::LinksByKey
StoreExplorerAlg     INFO | | | | +--> /Times [Address: CLID=0x190 Type=0x2]  LHCb::LinksByKey
StoreExplorerAlg     INFO | | | +--> /Ecal [Address: CLID=0x1 Type=0x2]  DataObject
StoreExplorerAlg     INFO | | | | +--> /Digits [Address: CLID=0x190 Type=0x2]  LHCb::LinksByKey
StoreExplorerAlg     INFO | | | +--> /Hcal [Address: CLID=0x1 Type=0x2]  DataObject
StoreExplorerAlg     INFO | | | | +--> /Digits [Address: CLID=0x190 Type=0x2]  LHCb::LinksByKey
StoreExplorerAlg     INFO | | | +--> /Muon [Address: CLID=0x1 Type=0x2]  DataObject
StoreExplorerAlg     INFO | | |   +--> /Digits [Address: CLID=0x190 Type=0x2]  LHCb::LinksByKey
StoreExplorerAlg     INFO | | +--> /Trig [Address: CLID=0x1 Type=0x2]  DataObject
StoreExplorerAlg     INFO | |   +--> /L0 [Address: CLID=0x1 Type=0x2]  DataObject
StoreExplorerAlg     INFO | |   | +--> /Calo [Address: CLID=0x190 Type=0x2]  LHCb::LinksByKey
StoreExplorerAlg     INFO | |     +--> /FullCalo [Address: CLID=0x190 Type=0x2]  LHCb::LinksByKey
StoreExplorerAlg     INFO | +--> /pSim [Address: CLID=0x1 Type=0x2]  DataObject
StoreExplorerAlg     INFO | | +--> /MCParticles [Address: CLID=0x5e6 Type=0x2]  LHCb::PackedMCParticles
StoreExplorerAlg     INFO | | +--> /MCVertices [Address: CLID=0x5e7 Type=0x2]  LHCb::PackedMCVertices
StoreExplorerAlg     INFO   +--> /DAQ [Address: CLID=0x1 Type=0x2]  DataObject
StoreExplorerAlg     INFO     +--> /RawEvent [Address: CLID=0x3ea Type=0x2]  LHCb::RawEvent
DumpMCEventAlg       INFO ++++++++++++++++++++++++++++++++++++++++++++++++++++
{ applicationName :	Gauss
applicationVersion :	v36r3
runNumber :	1082
condDBTags :	[(DDDB, head-20090330), (SIMCOND, sim-20090402-vc-mu100)]
platformInfo :DUMMY_INSTRUCTION_SET
 }{ evtNumber :	73
evtTime :	212025
 }
DumpMCEventAlg       INFO MCVertex/MCParticle tree structure is OK
DumpMCEventAlg       INFO There are 2 Primary Vertices:
DumpMCEventAlg       INFO There are 1992 Vertices:
DumpMCEventAlg       INFO There are 2042 Particles:
EventSelector     SUCCESS Reading Event record 3. Record number within stream 1: 3
StoreExplorerAlg     INFO ========= /Event[0x########@EventDataSvc]:
StoreExplorerAlg     INFO +--> /Event [Address: CLID=0x1 Type=0x2]  DataObject
StoreExplorerAlg     INFO | +--> /Gen [Address: CLID=0x1 Type=0x2]  DataObject
StoreExplorerAlg     INFO | | +--> /Header [Address: CLID=0x66 Type=0x2]  LHCb::GenHeader
StoreExplorerAlg     INFO | | +--> /HepMCEvents [Address: CLID=0x######## Type=0x2]  KeyedContainer<LHCb::HepMCEvent, [0x2]
StoreExplorerAlg     INFO | | +--> /Collisions [Address: CLID=0x######## Type=0x2]  KeyedContainer<LHCb::GenCollisio [0x2]
StoreExplorerAlg     INFO | +--> /MC [Address: CLID=0x1 Type=0x2]  DataObject
StoreExplorerAlg     INFO | | +--> /Header [Address: CLID=0x68 Type=0x2]  LHCb::MCHeader
StoreExplorerAlg     INFO | | +--> /Muon [Address: CLID=0x1 Type=0x2]  DataObject
StoreExplorerAlg     INFO | | | +--> /DigitsInfo [Address: CLID=0x1f4 Type=0x2]  LHCb::IntLink
StoreExplorerAlg     INFO | | +--> /Rich [Address: CLID=0x1 Type=0x2]  DataObject
StoreExplorerAlg     INFO | | | +--> /DigitSummaries [Address: CLID=0x######## Type=0x2]  ObjectVector<LHCb::MCRichDigitSu [0x505]
StoreExplorerAlg     INFO | | +--> /DigiHeader [Address: CLID=0x67 Type=0x2]  LHCb::ProcessHeader
StoreExplorerAlg     INFO | | +--> /TrackInfo [Address: CLID=0x12c Type=0x2]  LHCb::MCProperty
StoreExplorerAlg     INFO | +--> /Link [Address: CLID=0x1 Type=0x2]  DataObject
StoreExplorerAlg     INFO | | +--> /Raw [Address: CLID=0x1 Type=0x2]  DataObject
StoreExplorerAlg     INFO | | | +--> /Velo [Address: CLID=0x1 Type=0x2]  DataObject
StoreExplorerAlg     INFO | | | | +--> /Clusters2MCHits [Address: CLID=0x190 Type=0x2]  LHCb::LinksByKey
StoreExplorerAlg     INFO | | | | +--> /Clusters [Address: CLID=0x190 Type=0x2]  LHCb::LinksByKey
StoreExplorerAlg     INFO | | | +--> /TT [Address: CLID=0x1 Type=0x2]  DataObject
StoreExplorerAlg     INFO | | | | +--> /Clusters2MCHits [Address: CLID=0x190 Type=0x2]  LHCb::LinksByKey
StoreExplorerAlg     INFO | | | | +--> /Clusters [Address: CLID=0x190 Type=0x2]  LHCb::LinksByKey
StoreExplorerAlg     INFO | | | +--> /IT [Address: CLID=0x1 Type=0x2]  DataObject
StoreExplorerAlg     INFO | | | | +--> /Clusters2MCHits [Address: CLID=0x190 Type=0x2]  LHCb::LinksByKey
StoreExplorerAlg     INFO | | | | +--> /Clusters [Address: CLID=0x190 Type=0x2]  LHCb::LinksByKey
StoreExplorerAlg     INFO | | | +--> /OT [Address: CLID=0x1 Type=0x2]  DataObject
StoreExplorerAlg     INFO | | | | +--> /Times2MCHits [Address: CLID=0x190 Type=0x2]  LHCb::LinksByKey
StoreExplorerAlg     INFO | | | | +--> /Times [Address: CLID=0x190 Type=0x2]  LHCb::LinksByKey
StoreExplorerAlg     INFO | | | +--> /Ecal [Address: CLID=0x1 Type=0x2]  DataObject
StoreExplorerAlg     INFO | | | | +--> /Digits [Address: CLID=0x190 Type=0x2]  LHCb::LinksByKey
StoreExplorerAlg     INFO | | | +--> /Hcal [Address: CLID=0x1 Type=0x2]  DataObject
StoreExplorerAlg     INFO | | | | +--> /Digits [Address: CLID=0x190 Type=0x2]  LHCb::LinksByKey
StoreExplorerAlg     INFO | | | +--> /Muon [Address: CLID=0x1 Type=0x2]  DataObject
StoreExplorerAlg     INFO | | |   +--> /Digits [Address: CLID=0x190 Type=0x2]  LHCb::LinksByKey
StoreExplorerAlg     INFO | | +--> /Trig [Address: CLID=0x1 Type=0x2]  DataObject
StoreExplorerAlg     INFO | |   +--> /L0 [Address: CLID=0x1 Type=0x2]  DataObject
StoreExplorerAlg     INFO | |   | +--> /Calo [Address: CLID=0x190 Type=0x2]  LHCb::LinksByKey
StoreExplorerAlg     INFO | |     +--> /FullCalo [Address: CLID=0x190 Type=0x2]  LHCb::LinksByKey
StoreExplorerAlg     INFO | +--> /pSim [Address: CLID=0x1 Type=0x2]  DataObject
StoreExplorerAlg     INFO | | +--> /MCParticles [Address: CLID=0x5e6 Type=0x2]  LHCb::PackedMCParticles
StoreExplorerAlg     INFO | | +--> /MCVertices [Address: CLID=0x5e7 Type=0x2]  LHCb::PackedMCVertices
StoreExplorerAlg     INFO   +--> /DAQ [Address: CLID=0x1 Type=0x2]  DataObject
StoreExplorerAlg     INFO     +--> /RawEvent [Address: CLID=0x3ea Type=0x2]  LHCb::RawEvent
DumpMCEventAlg       INFO ++++++++++++++++++++++++++++++++++++++++++++++++++++
{ applicationName :	Gauss
applicationVersion :	v36r3
runNumber :	1082
condDBTags :	[(DDDB, head-20090330), (SIMCOND, sim-20090402-vc-mu100)]
platformInfo :DUMMY_INSTRUCTION_SET
 }{ evtNumber :	74
evtTime :	212050
 }
DumpMCEventAlg       INFO MCVertex/MCParticle tree structure is OK
DumpMCEventAlg       INFO There are 2 Primary Vertices:
DumpMCEventAlg       INFO There are 1092 Vertices:
DumpMCEventAlg       INFO There are 1190 Particles:
EventSelector     SUCCESS Reading Event record 4. Record number within stream 1: 4
StoreExplorerAlg     INFO ========= /Event[0x########@EventDataSvc]:
StoreExplorerAlg     INFO +--> /Event [Address: CLID=0x1 Type=0x2]  DataObject
StoreExplorerAlg     INFO | +--> /Gen [Address: CLID=0x1 Type=0x2]  DataObject
StoreExplorerAlg     INFO | | +--> /Header [Address: CLID=0x66 Type=0x2]  LHCb::GenHeader
StoreExplorerAlg     INFO | | +--> /HepMCEvents [Address: CLID=0x######## Type=0x2]  KeyedContainer<LHCb::HepMCEvent, [0x3]
StoreExplorerAlg     INFO | | +--> /Collisions [Address: CLID=0x######## Type=0x2]  KeyedContainer<LHCb::GenCollisio [0x3]
StoreExplorerAlg     INFO | +--> /MC [Address: CLID=0x1 Type=0x2]  DataObject
StoreExplorerAlg     INFO | | +--> /Header [Address: CLID=0x68 Type=0x2]  LHCb::MCHeader
StoreExplorerAlg     INFO | | +--> /Muon [Address: CLID=0x1 Type=0x2]  DataObject
StoreExplorerAlg     INFO | | | +--> /DigitsInfo [Address: CLID=0x1f4 Type=0x2]  LHCb::IntLink
StoreExplorerAlg     INFO | | +--> /Rich [Address: CLID=0x1 Type=0x2]  DataObject
StoreExplorerAlg     INFO | | | +--> /DigitSummaries [Address: CLID=0x######## Type=0x2]  ObjectVector<LHCb::MCRichDigitSu [0x2f6]
StoreExplorerAlg     INFO | | +--> /DigiHeader [Address: CLID=0x67 Type=0x2]  LHCb::ProcessHeader
StoreExplorerAlg     INFO | | +--> /TrackInfo [Address: CLID=0x12c Type=0x2]  LHCb::MCProperty
StoreExplorerAlg     INFO | +--> /Link [Address: CLID=0x1 Type=0x2]  DataObject
StoreExplorerAlg     INFO | | +--> /Raw [Address: CLID=0x1 Type=0x2]  DataObject
StoreExplorerAlg     INFO | | | +--> /Velo [Address: CLID=0x1 Type=0x2]  DataObject
StoreExplorerAlg     INFO | | | | +--> /Clusters2MCHits [Address: CLID=0x190 Type=0x2]  LHCb::LinksByKey
StoreExplorerAlg     INFO | | | | +--> /Clusters [Address: CLID=0x190 Type=0x2]  LHCb::LinksByKey
StoreExplorerAlg     INFO | | | +--> /TT [Address: CLID=0x1 Type=0x2]  DataObject
StoreExplorerAlg     INFO | | | | +--> /Clusters2MCHits [Address: CLID=0x190 Type=0x2]  LHCb::LinksByKey
StoreExplorerAlg     INFO | | | | +--> /Clusters [Address: CLID=0x190 Type=0x2]  LHCb::LinksByKey
StoreExplorerAlg     INFO | | | +--> /IT [Address: CLID=0x1 Type=0x2]  DataObject
StoreExplorerAlg     INFO | | | | +--> /Clusters2MCHits [Address: CLID=0x190 Type=0x2]  LHCb::LinksByKey
StoreExplorerAlg     INFO | | | | +--> /Clusters [Address: CLID=0x190 Type=0x2]  LHCb::LinksByKey
StoreExplorerAlg     INFO | | | +--> /OT [Address: CLID=0x1 Type=0x2]  DataObject
StoreExplorerAlg     INFO | | | | +--> /Times2MCHits [Address: CLID=0x190 Type=0x2]  LHCb::LinksByKey
StoreExplorerAlg     INFO | | | | +--> /Times [Address: CLID=0x190 Type=0x2]  LHCb::LinksByKey
StoreExplorerAlg     INFO | | | +--> /Ecal [Address: CLID=0x1 Type=0x2]  DataObject
StoreExplorerAlg     INFO | | | | +--> /Digits [Address: CLID=0x190 Type=0x2]  LHCb::LinksByKey
StoreExplorerAlg     INFO | | | +--> /Hcal [Address: CLID=0x1 Type=0x2]  DataObject
StoreExplorerAlg     INFO | | | | +--> /Digits [Address: CLID=0x190 Type=0x2]  LHCb::LinksByKey
StoreExplorerAlg     INFO | | | +--> /Muon [Address: CLID=0x1 Type=0x2]  DataObject
StoreExplorerAlg     INFO | | |   +--> /Digits [Address: CLID=0x190 Type=0x2]  LHCb::LinksByKey
StoreExplorerAlg     INFO | | +--> /Trig [Address: CLID=0x1 Type=0x2]  DataObject
StoreExplorerAlg     INFO | |   +--> /L0 [Address: CLID=0x1 Type=0x2]  DataObject
StoreExplorerAlg     INFO | |   | +--> /Calo [Address: CLID=0x190 Type=0x2]  LHCb::LinksByKey
StoreExplorerAlg     INFO | |     +--> /FullCalo [Address: CLID=0x190 Type=0x2]  LHCb::LinksByKey
StoreExplorerAlg     INFO | +--> /pSim [Address: CLID=0x1 Type=0x2]  DataObject
StoreExplorerAlg     INFO | | +--> /MCParticles [Address: CLID=0x5e6 Type=0x2]  LHCb::PackedMCParticles
StoreExplorerAlg     INFO | | +--> /MCVertices [Address: CLID=0x5e7 Type=0x2]  LHCb::PackedMCVertices
StoreExplorerAlg     INFO   +--> /DAQ [Address: CLID=0x1 Type=0x2]  DataObject
StoreExplorerAlg     INFO     +--> /RawEvent [Address: CLID=0x3ea Type=0x2]  LHCb::RawEvent
DumpMCEventAlg       INFO ++++++++++++++++++++++++++++++++++++++++++++++++++++
{ applicationName :	Gauss
applicationVersion :	v36r3
runNumber :	1082
condDBTags :	[(DDDB, head-20090330), (SIMCOND, sim-20090402-vc-mu100)]
platformInfo :DUMMY_INSTRUCTION_SET
 }{ evtNumber :	75
evtTime :	212075
 }
DumpMCEventAlg       INFO MCVertex/MCParticle tree structure is OK
DumpMCEventAlg       INFO There are 3 Primary Vertices:
DumpMCEventAlg       INFO There are 718 Vertices:
DumpMCEventAlg       INFO There are 764 Particles:
EventSelector     SUCCESS Reading Event record 5. Record number within stream 1: 5
StoreExplorerAlg     INFO ========= /Event[0x########@EventDataSvc]:
StoreExplorerAlg     INFO +--> /Event [Address: CLID=0x1 Type=0x2]  DataObject
StoreExplorerAlg     INFO | +--> /Gen [Address: CLID=0x1 Type=0x2]  DataObject
StoreExplorerAlg     INFO | | +--> /Header [Address: CLID=0x66 Type=0x2]  LHCb::GenHeader
StoreExplorerAlg     INFO | | +--> /HepMCEvents [Address: CLID=0x######## Type=0x2]  KeyedContainer<LHCb::HepMCEvent, [0x1]
StoreExplorerAlg     INFO | | +--> /Collisions [Address: CLID=0x######## Type=0x2]  KeyedContainer<LHCb::GenCollisio [0x1]
StoreExplorerAlg     INFO | +--> /MC [Address: CLID=0x1 Type=0x2]  DataObject
StoreExplorerAlg     INFO | | +--> /Header [Address: CLID=0x68 Type=0x2]  LHCb::MCHeader
StoreExplorerAlg     INFO | | +--> /Muon [Address: CLID=0x1 Type=0x2]  DataObject
StoreExplorerAlg     INFO | | | +--> /DigitsInfo [Address: CLID=0x1f4 Type=0x2]  LHCb::IntLink
StoreExplorerAlg     INFO | | +--> /Rich [Address: CLID=0x1 Type=0x2]  DataObject
StoreExplorerAlg     INFO | | | +--> /DigitSummaries [Address: CLID=0x######## Type=0x2]  ObjectVector<LHCb::MCRichDigitSu [0x59]
StoreExplorerAlg     INFO | | +--> /DigiHeader [Address: CLID=0x67 Type=0x2]  LHCb::ProcessHeader
StoreExplorerAlg     INFO | | +--> /TrackInfo [Address: CLID=0x12c Type=0x2]  LHCb::MCProperty
StoreExplorerAlg     INFO | +--> /Link [Address: CLID=0x1 Type=0x2]  DataObject
StoreExplorerAlg     INFO | | +--> /Raw [Address: CLID=0x1 Type=0x2]  DataObject
StoreExplorerAlg     INFO | | | +--> /Velo [Address: CLID=0x1 Type=0x2]  DataObject
StoreExplorerAlg     INFO | | | | +--> /Clusters2MCHits [Address: CLID=0x190 Type=0x2]  LHCb::LinksByKey
StoreExplorerAlg     INFO | | | | +--> /Clusters [Address: CLID=0x190 Type=0x2]  LHCb::LinksByKey
StoreExplorerAlg     INFO | | | +--> /TT [Address: CLID=0x1 Type=0x2]  DataObject
StoreExplorerAlg     INFO | | | | +--> /Clusters2MCHits [Address: CLID=0x190 Type=0x2]  LHCb::LinksByKey
StoreExplorerAlg     INFO | | | | +--> /Clusters [Address: CLID=0x190 Type=0x2]  LHCb::LinksByKey
StoreExplorerAlg     INFO | | | +--> /IT [Address: CLID=0x1 Type=0x2]  DataObject
StoreExplorerAlg     INFO | | | | +--> /Clusters2MCHits [Address: CLID=0x190 Type=0x2]  LHCb::LinksByKey
StoreExplorerAlg     INFO | | | | +--> /Clusters [Address: CLID=0x190 Type=0x2]  LHCb::LinksByKey
StoreExplorerAlg     INFO | | | +--> /OT [Address: CLID=0x1 Type=0x2]  DataObject
StoreExplorerAlg     INFO | | | | +--> /Times2MCHits [Address: CLID=0x190 Type=0x2]  LHCb::LinksByKey
StoreExplorerAlg     INFO | | | | +--> /Times [Address: CLID=0x190 Type=0x2]  LHCb::LinksByKey
StoreExplorerAlg     INFO | | | +--> /Ecal [Address: CLID=0x1 Type=0x2]  DataObject
StoreExplorerAlg     INFO | | | | +--> /Digits [Address: CLID=0x190 Type=0x2]  LHCb::LinksByKey
StoreExplorerAlg     INFO | | | +--> /Hcal [Address: CLID=0x1 Type=0x2]  DataObject
StoreExplorerAlg     INFO | | | | +--> /Digits [Address: CLID=0x190 Type=0x2]  LHCb::LinksByKey
StoreExplorerAlg     INFO | | | +--> /Muon [Address: CLID=0x1 Type=0x2]  DataObject
StoreExplorerAlg     INFO | | |   +--> /Digits [Address: CLID=0x190 Type=0x2]  LHCb::LinksByKey
StoreExplorerAlg     INFO | | +--> /Trig [Address: CLID=0x1 Type=0x2]  DataObject
StoreExplorerAlg     INFO | |   +--> /L0 [Address: CLID=0x1 Type=0x2]  DataObject
StoreExplorerAlg     INFO | |   | +--> /Calo [Address: CLID=0x190 Type=0x2]  LHCb::LinksByKey
StoreExplorerAlg     INFO | |     +--> /FullCalo [Address: CLID=0x190 Type=0x2]  LHCb::LinksByKey
StoreExplorerAlg     INFO | +--> /pSim [Address: CLID=0x1 Type=0x2]  DataObject
StoreExplorerAlg     INFO | | +--> /MCParticles [Address: CLID=0x5e6 Type=0x2]  LHCb::PackedMCParticles
StoreExplorerAlg     INFO | | +--> /MCVertices [Address: CLID=0x5e7 Type=0x2]  LHCb::PackedMCVertices
StoreExplorerAlg     INFO   +--> /DAQ [Address: CLID=0x1 Type=0x2]  DataObject
StoreExplorerAlg     INFO     +--> /RawEvent [Address: CLID=0x3ea Type=0x2]  LHCb::RawEvent
DumpMCEventAlg       INFO ++++++++++++++++++++++++++++++++++++++++++++++++++++
{ applicationName :	Gauss
applicationVersion :	v36r3
runNumber :	1082
condDBTags :	[(DDDB, head-20090330), (SIMCOND, sim-20090402-vc-mu100)]
platformInfo :DUMMY_INSTRUCTION_SET
 }{ evtNumber :	76
evtTime :	212100
 }
DumpMCEventAlg       INFO MCVertex/MCParticle tree structure is OK
DumpMCEventAlg       INFO There are 1 Primary Vertices:
DumpMCEventAlg       INFO There are 79 Vertices:
DumpMCEventAlg       INFO There are 101 Particles:
ApplicationMgr       INFO Application Manager Stopped successfully
TESFingerPrint    VERBOSE ==> TES DataObject statistics: {/Event: 5, /Event/DAQ: 5, /Event/DAQ/RawEvent: 5, /Event/Gen: 5, /Event/Gen/Collisions: 5, /Event/Gen/Header: 5, /Event/Gen/HepMCEvents: 5, /Event/Link: 5, /Event/Link/Raw: 5, /Event/Link/Raw/Ecal: 5, /Event/Link/Raw/Ecal/Digits: 5, /Event/Link/Raw/Hcal: 5, /Event/Link/Raw/Hcal/Digits: 5, /Event/Link/Raw/IT: 5, /Event/Link/Raw/IT/Clusters: 5, /Event/Link/Raw/IT/Clusters2MCHits: 5, /Event/Link/Raw/Muon: 5, /Event/Link/Raw/Muon/Digits: 5, /Event/Link/Raw/OT: 5, /Event/Link/Raw/OT/Times: 5, /Event/Link/Raw/OT/Times2MCHits: 5, /Event/Link/Raw/TT: 5, /Event/Link/Raw/TT/Clusters: 5, /Event/Link/Raw/TT/Clusters2MCHits: 5, /Event/Link/Raw/Velo: 5, /Event/Link/Raw/Velo/Clusters: 5, /Event/Link/Raw/Velo/Clusters2MCHits: 5, /Event/Link/Trig: 5, /Event/Link/Trig/L0: 5, /Event/Link/Trig/L0/Calo: 5, /Event/Link/Trig/L0/FullCalo: 5, /Event/MC: 5, /Event/MC/DigiHeader: 5, /Event/MC/Header: 5, /Event/MC/Muon: 5, /Event/MC/Muon/DigitsInfo: 5, /Event/MC/Rich: 5, /Event/MC/Rich/DigitSummaries: 5, /Event/MC/TrackInfo: 5, /Event/pSim: 5, /Event/pSim/MCParticles: 5, /Event/pSim/MCVertices: 5}
TESFingerPrint    VERBOSE ==> TES Container sizes: {/Event/Gen/Collisions: {1: 1, 2: 3, 3: 1}, /Event/Gen/HepMCEvents: {1: 1, 2: 3, 3: 1}, /Event/MC/Rich/DigitSummaries: {89: 1, 758: 1, 1285: 1, 2208: 1, 3703: 1}}
InputCopyStream      INFO Events output: 5
FSRInputCopyStream   INFO Set up File Summary Record
FSRInputCopyStream   INFO Events output: 1
EventLoopMgr         INFO Histograms converted successfully according to request.
ApplicationMgr       INFO Application Manager Finalized successfully
ApplicationMgr       INFO Application Manager Terminated successfully
